…
- ...let you address columns within the data frame by simply typing the name

The tidyverse functions always work within the context of a data frame -- specified as first argument -- and columns within that data frame can be adressed by simply typing their name (without quotes).


```r
# this returns life-tables entries for Australia, 1921 ages 20 to 25
filter(hmd_counts, country == 'AUS', period == 1921, age %in% 20:25)
```

```
## # A tibble: 18 x 7
##   country sex    period   age    nx   nDx    nEx
##   <chr>   <chr>   <int> <int> <int> <dbl>  <dbl>
## 1 AUS     Female   1921    20     1  138. 46387.
## 2 AUS     Female   1921    21     1  118. 46437.
## 3 AUS     Female   1921    22     1  116. 45769.
## 4 AUS     Female   1921    23     1  149. 45746.
## 5 AUS     Female   1921    24     1  146. 46524.
## # ... with 13 more rows
```

```r
# this is the same, but much more cumbersome to write and read
hmd_counts[hmd_counts$country == 'AUS' &
             hmd_counts$period == 1921 &
             hmd_counts$age %in% 20:25,]
```

```
## # A tibble: 18 x 7
##   country sex    period   age    nx   nDx    nEx
##   <chr>   <chr>   <int> <int> <int> <dbl>  <dbl>
## 1 AUS     Female   1921    20     1  138. 46387.
## 2 AUS     Female   1921    21     1  118. 46437.
## 3 AUS     Female   1921    22     1  116. 45769.
## 4 AUS     Female   1921    23     1  149. 45746.
## 5 AUS     Female   1921    24     1  146. 46524.
## # ... with 13 more rows
```
…
#### `select()` columns

Using `select()` we can specify which columns to keep and which columns to delete from a data frame. Let's have a look at a typical panel data set: The [General Social Survey](http://gss.norc.org/). We can see that the `gss` data features 960 columns.


```r
gss
```

```
## # A tibble: 2,867 x 960
##   mar1   mar2  mar3  mar4  mar5  mar6  mar7  mar8  mar9  mar10 mar11 mar12
##   <dbl+> <dbl> <dbl> <dbl> <dbl> <dbl> <dbl> <dbl> <dbl> <dbl> <dbl> <dbl>
## 1 1      1     5     5     <NA>  <NA>  <NA>  <NA>  <NA>  <NA>  <NA>  <NA> 
## 2 4      <NA>  <NA>  <NA>  <NA>  <NA>  <NA>  <NA>  <NA>  <NA>  <NA>  <NA> 
## 3 1      1     <NA>  <NA>  <NA>  <NA>  <NA>  <NA>  <NA>  <NA>  <NA>  <NA> 
## 4 1      1     5     4     5     5     <NA>  <NA>  <NA>  <NA>  <NA>  <NA> 
## 5 1      1     5     <NA>  <NA>  <NA>  <NA>  <NA>  <NA>  <NA>  <NA>  <NA> 
## # ... with 2,862 more rows, and 948 more variables: mar13 <dbl+lbl>,
## #   mar14 <dbl+lbl>, abany <dbl+lbl>, abdefect <dbl+lbl>,
## #   abhlth <dbl+lbl>, …
```

Here we just select the two columns named `id` and `age`.


```r
gss %>% select(id, age)
```

```
## # A tibble: 2,867 x 2
##      id age      
##   <dbl> <dbl+lbl>
## 1     1 47       
## 2     2 61       
## 3     3 72       
## 4     4 43       
## 5     5 55       
## # ... with 2,862 more rows
```

We can also select by column position.


```r
gss %>% select(312, 28)
```

```
## # A tibble: 2,867 x 2
##      id age      
##   <dbl> <dbl+lbl>
## 1     1 47       
## 2     2 61       
## 3     3 72       
## 4     4 43       
## 5     5 55       
## # ... with 2,862 more rows
```

The column operator `:` selects a range of columns. We can use it to select all variables from `mar1` to `mar14`, the marriage status of up to 14 persons in a household.


```r
gss %>% select(mar1:mar14)
```

```
## # A tibble: 2,867 x 14
##   mar1   mar2  mar3  mar4  mar5  mar6  mar7  mar8  mar9  mar10 mar11 mar12
##   <dbl+> <dbl> <dbl> <dbl> <dbl> <dbl> <dbl> <dbl> <dbl> <dbl> <dbl> <dbl>
## 1 1      1     5     5     <NA>  <NA>  <NA>  <NA>  <NA>  <NA>  <NA>  <NA> 
## 2 4      <NA>  <NA>  <NA>  <NA>  <NA>  <NA>  <NA>  <NA>  <NA>  <NA>  <NA> 
## 3 1      1     <NA>  <NA>  <NA>  <NA>  <NA>  <NA>  <NA>  <NA>  <NA>  <NA> 
## 4 1      1     5     4     5     5     <NA>  <NA>  <NA>  <NA>  <NA>  <NA> 
## 5 1      1     5     <NA>  <NA>  <NA>  <NA>  <NA>  <NA>  <NA>  <NA>  <NA> 
## # ... with 2,862 more rows, and 2 more variables: mar13 <dbl+lbl>,
## #   mar14 <dbl+lbl>
```

Again, the same is possible by specifying the column position, in this case the first 14 columns.


```r
gss %>% select(1:14)
```

```
## # A tibble: 2,867 x 14
##   mar1   mar2  mar3  mar4  mar5  mar6  mar7  mar8  mar9  mar10 mar11 mar12
##   <dbl+> <dbl> <dbl> <dbl> <dbl> <dbl> <dbl> <dbl> <dbl> <dbl> <dbl> <dbl>
## 1 1      1     5     5     <NA>  <NA>  <NA>  <NA>  <NA>  <NA>  <NA>  <NA> 
## 2 4      <NA>  <NA>  <NA>  <NA>  <NA>  <NA>  <NA>  <NA>  <NA>  <NA>  <NA> 
## 3 1      1     <NA>  <NA>  <NA>  <NA>  <NA>  <NA>  <NA>  <NA>  <NA>  <NA> 
## 4 1      1     5     4     5     5     <NA>  <NA>  <NA>  <NA>  <NA>  <NA> 
## 5 1      1     5     <NA>  <NA>  <NA>  <NA>  <NA>  <NA>  <NA>  <NA>  <NA> 
## # ... with 2,862 more rows, and 2 more variables: mar13 <dbl+lbl>,
## #   mar14 <dbl+lbl>
```

A minus preceeding a selection returns all columns *apart* from those specified. Notice that a selection of columns like `mar1:mar14` must be surrounded by parantheses in order to be removed.


```r
# select everything apart from mar1
gss %>% select(-mar1)
```

```
## # A tibble: 2,867 x 959
##   mar2   mar3  mar4  mar5  mar6  mar7  mar8  mar9  mar10 mar11 mar12 mar13
##   <dbl+> <dbl> <dbl> <dbl> <dbl> <dbl> <dbl> <dbl> <dbl> <dbl> <dbl> <dbl>
## 1 1      5     5     <NA>  <NA>  <NA>  <NA>  <NA>  <NA>  <NA>  <NA>  <NA> 
## 2 <NA>   <NA>  <NA>  <NA>  <NA>  <NA>  <NA>  <NA>  <NA>  <NA>  <NA>  <NA> 
## 3 1      <NA>  <NA>  <NA>  <NA>  <NA>  <NA>  <NA>  <NA>  <NA>  <NA>  <NA> 
## 4 1      5     4     5     5     <NA>  <NA>  <NA>  <NA>  <NA>  <NA>  <NA> 
## 5 1      5     <NA>  <NA>  <NA>  <NA>  <NA>  <NA>  <NA>  <NA>  <NA>  <NA> 
## # ... with 2,862 more rows, and 947 more variables: mar14 <dbl+lbl>,
## #   abany <dbl+lbl>, abdefect <dbl+lbl>, abhlth <dbl+lbl>,
## #   abnomore <dbl+lbl>, …
```

```r
# select everything apart from mar1 to mar14
gss %>% select(-(mar1:mar14))
```

```
## # A tibble: 2,867 x 946
##   abany  abdefect abhlth abnomore abpoor abrape absingle acqntsex adforjob
##   <dbl+> <dbl+lb> <dbl+> <dbl+lb> <dbl+> <dbl+> <dbl+lb> <dbl+lb> <dbl+lb>
## 1 1      1        1      1        1      1      1        <NA>     <NA>    
## 2 <NA>   <NA>     <NA>   <NA>     <NA>   <NA>   <NA>     2        <NA>    
## 3 2      2        1      2        2      1      2        <NA>     <NA>    
## 4 2      2        1      2        2      1      2        <NA>     <NA>    
## 5 1      1        1      1        1      1      1        <NA>     <NA>    
## # ... with 2,862 more rows, and 937 more variables: adults <dbl+lbl>,
## #   advfront <dbl+lbl>, advsched <dbl+lbl>, affrmact <dbl+lbl>,
## #   age <dbl+lbl>, …
```

You can use functions inside of `select()` as long as they return either a column name or a column position. The standard R function `which()` is handy in that context as it returns the index of the elements for which a conditions holds true.


```r
# return all columns of gss which names are 3 characters or less
gss %>% select(which(str_length(names(.)) <= 3))
```

```
## # A tibble: 2,867 x 6
##   age       god          id jew       sex       tax      
##   <dbl+lbl> <dbl+lbl> <dbl> <dbl+lbl> <dbl+lbl> <dbl+lbl>
## 1 47        2             1 <NA>      1         2        
## 2 61        <NA>          2 <NA>      1         <NA>     
## 3 72        6             3 <NA>      1         1        
## 4 43        6             4 <NA>      2         1        
## 5 55        1             5 <NA>      2         1        
## # ... with 2,862 more rows
```

There are a number of functions provided by the `tidyverse` which are designed to help with column selection.


```r
# select all columns where name starts with 'age'
gss %>% select(starts_with('age'))
```

```
## # A tibble: 2,867 x 6
##   age       age3      aged      agedchld  agedpar   agekdbrn 
##   <dbl+lbl> <dbl+lbl> <dbl+lbl> <dbl+lbl> <dbl+lbl> <dbl+lbl>
## 1 47        <NA>      <NA>      <NA>      3         29       
## 2 61        <NA>      1         <NA>      <NA>      <NA>     
## 3 72        <NA>      1         <NA>      <NA>      24       
## 4 43        <NA>      <NA>      <NA>      1         19       
## 5 55        <NA>      1         <NA>      <NA>      31       
## # ... with 2,862 more rows
```

```r
# select columns named mar1, mar2, mar3, mar4, mar5
gss %>% select(num_range('mar', 1:5))
```

```
## # A tibble: 2,867 x 5
##   mar1      mar2      mar3      mar4      mar5     
##   <dbl+lbl> <dbl+lbl> <dbl+lbl> <dbl+lbl> <dbl+lbl>
## 1 1         1         5         5         <NA>     
## 2 4         <NA>      <NA>      <NA>      <NA>     
## 3 1         1         <NA>      <NA>      <NA>     
## 4 1         1         5         4         5        
## 5 1         1         5         <NA>      <NA>     
## # ... with 2,862 more rows
```

```r
# select all columns where name contains 'sex'
gss %>% select(contains('sex'))
```

```
## # A tibble: 2,867 x 17
##   acqntsex  frndsex  homosex  intsex   matesex  othersex paidsex  pikupsex
##   <dbl+lbl> <dbl+lb> <dbl+lb> <dbl+lb> <dbl+lb> <dbl+lb> <dbl+lb> <dbl+lb>
## 1 <NA>      <NA>     4        2        <NA>     <NA>     <NA>     <NA>    
## 2 2         1        <NA>     2        2        2        2        2       
## 3 <NA>      <NA>     4        2        1        <NA>     <NA>     <NA>    
## 4 <NA>      <NA>     4        2        <NA>     <NA>     <NA>     <NA>    
## 5 <NA>      <NA>     4        2        1        <NA>     <NA>     <NA>    
## # ... with 2,862 more rows, and 9 more variables: relatsex <dbl+lbl>,
## #   sex <dbl+lbl>, sexeduc <dbl+lbl>, sexfreq <dbl+lbl>,
## #   sexornt <dbl+lbl>, …
```

You can also use [regular expressions](http://stat.ethz.ch/R-manual/R-devel/library/base/html/regex.html) when selecting columns.


```r
# select columns where the name contains a number
gss %>% select(matches('[0-9]'))
```

```
## # A tibble: 2,867 x 323
##   mar1   mar2  mar3  mar4  mar5  mar6  mar7  mar8  mar9  mar10 mar11 mar12
##   <dbl+> <dbl> <dbl> <dbl> <dbl> <dbl> <dbl> <dbl> <dbl> <dbl> <dbl> <dbl>
## 1 1      1     5     5     <NA>  <NA>  <NA>  <NA>  <NA>  <NA>  <NA>  <NA> 
## 2 4      <NA>  <NA>  <NA>  <NA>  <NA>  <NA>  <NA>  <NA>  <NA>  <NA>  <NA> 
## 3 1      1     <NA>  <NA>  <NA>  <NA>  <NA>  <NA>  <NA>  <NA>  <NA>  <NA> 
## 4 1      1     5     4     5     5     <NA>  <NA>  <NA>  <NA>  <NA>  <NA> 
## 5 1      1     5     <NA>  <NA>  <NA>  <NA>  <NA>  <NA>  <NA>  <NA>  <NA> 
## # ... with 2,862 more rows, and 311 more variables: mar13 <dbl+lbl>,
## #   mar14 <dbl+lbl>, age3 <dbl+lbl>, artatt1 <dbl+lbl>, artatt2 <dbl+lbl>,
## #   …
```

`select()` returns the columns in the order it selects them. It can therefore be used to reorder the columns of a dataframe.


```r
# reverse the order of the columns
gss %>% select(rev(names(.)))
```

```
## # A tibble: 2,867 x 960
##   cogradtounder cobarate  coeftotlt cosector  spgradtounder spbarate 
##   <dbl+lbl>     <dbl+lbl> <dbl+lbl> <dbl+lbl> <dbl+lbl>     <dbl+lbl>
## 1 <NA>          <NA>      <NA>      <NA>      2             3        
## 2 <NA>          <NA>      <NA>      <NA>      <NA>          <NA>     
## 3 <NA>          <NA>      <NA>      <NA>      <NA>          <NA>     
## 4 <NA>          <NA>      <NA>      <NA>      <NA>          <NA>     
## 5 <NA>          <NA>      <NA>      <NA>      1             1        
## # ... with 2,862 more rows, and 954 more variables: speftotlt <dbl+lbl>,
## #   spsector <dbl+lbl>, gradtounder <dbl+lbl>, barate <dbl+lbl>,
## #   eftotlt <dbl+lbl>, …
```

```r
# reorder the columns in reverse alphabetical order
gss %>% select(order(names(.), decreasing = TRUE))
```

```
## # A tibble: 2,867 x 960
##   zodiac  year xnorcsiz xmovie xmarsex xhaustn wwwmin wwwhr wtssnr wtssall
##   <dbl+> <dbl> <dbl+lb> <dbl+> <dbl+l> <dbl+l> <dbl+> <dbl> <dbl+> <dbl+l>
## 1 11      2016 6        <NA>   2       <NA>    0      15    1.260… 0.9569…
## 2 8       2016 6        2      <NA>    <NA>    0      5     0.630… 0.4784…
## 3 12      2016 6        2      1       <NA>    <NA>   <NA>  1.260… 0.9569…
## 4 4       2016 6        <NA>   1       <NA>    0      7     2.520… 1.9139…
## 5 8       2016 6        2      1       3       <NA>   <NA>  1.890… 1.4354…
## # ... with 2,862 more rows, and 950 more variables: wtss <dbl+lbl>,
## #   wrkwayup <dbl+lbl>, wrkstat <dbl+lbl>, wrkslf <dbl+lbl>,
## #   wrkshift <dbl+lbl>, …
```

```r
# reorder the columns in increasing length of their names
gss %>% select(order(str_length(names(.))))
```

```
## # A tibble: 2,867 x 960
##      id age    god   jew   sex   tax   mar1  mar2  mar3  mar4  mar5  mar6 
##   <dbl> <dbl+> <dbl> <dbl> <dbl> <dbl> <dbl> <dbl> <dbl> <dbl> <dbl> <dbl>
## 1     1 47     2     <NA>  1     2     1     1     5     5     <NA>  <NA> 
## 2     2 61     <NA>  <NA>  1     <NA>  4     <NA>  <NA>  <NA>  <NA>  <NA> 
## 3     3 72     6     <NA>  1     1     1     1     <NA>  <NA>  <NA>  <NA> 
## 4     4 43     6     <NA>  2     1     1     1     5     4     5     5    
## 5     5 55     1     <NA>  2     1     1     1     5     <NA>  <NA>  <NA> 
## # ... with 2,862 more rows, and 948 more variables: mar7 <dbl+lbl>,
## #   mar8 <dbl+lbl>, mar9 <dbl+lbl>, age3 <dbl+lbl>, aged <dbl+lbl>, …
```

```r
# reorder the columns randomly
gss %>% select(sample(ncol(.)))
```

```
## # A tibble: 2,867 x 960
##   union1  hompop  grass   fair    proudwrk aidold hschem relpersn stayorg3
##   <dbl+l> <dbl+l> <dbl+l> <dbl+l> <dbl+lb> <dbl+> <dbl+> <dbl+lb> <dbl+lb>
## 1 <NA>    5       <NA>    <NA>    <NA>     2      1      4        <NA>    
## 2 4       1       1       1       <NA>     2      2      4        <NA>    
## 3 4       2       2       1       <NA>     <NA>   <NA>   1        <NA>    
## 4 <NA>    6       <NA>    <NA>    <NA>     2      1      2        <NA>    
## 5 4       3       1       2       3        <NA>   <NA>   4        4       
## # ... with 2,862 more rows, and 951 more variables: paocc10 <dbl+lbl>,
## #   astrosci <dbl+lbl>, relhhd2 <dbl+lbl>, closewht <dbl+lbl>,
## #   suiyrs1 <dbl+lbl>, …
```

Selected columns can be renamed.


```r
gss %>% select(ID = id, EDUCATION = educ)
```

```
## # A tibble: 2,867 x 2
##      ID EDUCATION
##   <dbl> <dbl+lbl>
## 1     1 16       
## 2     2 12       
## 3     3 16       
## 4     4 12       
## 5     5 18       
## # ... with 2,862 more rows
```
…
### Row based transforms

#### `filter()` rows

You can create subsets of the rows in your data using `filter()`.


```r
# return rows of `euro_regio` where year is equal to 2016
euro_regio %>% filter(year == 2016)
```

```
## # A tibble: 342 x 21
##   country_code country_name nuts2_code nuts2_name     year     pop popdens
##   <chr>        <chr>        <chr>      <chr>         <int>   <dbl>   <dbl>
## 1 AL           Albania      AL01       Veri           2016  848059    NA  
## 2 AL           Albania      AL02       Qender         2016 1110562    NA  
## 3 AL           Albania      AL03       Jug            2016  927405    NA  
## 4 AL           Albania      ALXX       ALXX Not reg…  2016      NA    NA  
## 5 AT           Austria      AT11       Burgenland (…  2016  291011    77.1
## # ... with 337 more rows, and 14 more variables: births <dbl>,
## #   deaths <dbl>, natgrowthrate <dbl>, growthrate <dbl>, netmigrate <dbl>,
## #   …
```
…
```
## [1] FALSE  TRUE  TRUE  TRUE
```

```r
# return all rows where unemployment is higher than 30%
euro_regio %>% filter(unemp > 30)
```

```
## # A tibble: 27 x 21
##   country_code country_name nuts2_code nuts2_name      year    pop popdens
##   <chr>        <chr>        <chr>      <chr>          <int>  <dbl>   <dbl>
## 1 EL           Greece       EL52       Kentriki Make…  2013 1.91e6    99.6
## 2 EL           Greece       EL53       Dytiki Makedo…  2013 2.81e5    29.6
## 3 EL           Greece       EL53       Dytiki Makedo…  2015 2.76e5    29.1
## 4 EL           Greece       EL53       Dytiki Makedo…  2016 2.74e5    29.5
## 5 ES           Spain        ES43       Extremadura     2012 1.10e6    27.1
## # ... with 22 more rows, and 14 more variables: births <dbl>,
## #   deaths <dbl>, natgrowthrate <dbl>, growthrate <dbl>, netmigrate <dbl>,
## #   …
```
…
```
## [1] FALSE FALSE FALSE FALSE
```

```r
# return all rows where net-migration rate is lower than -20%
euro_regio %>% filter(netmigrate < -20)
```

```
## # A tibble: 13 x 21
##   country_code country_name nuts2_code nuts2_name      year    pop popdens
##   <chr>        <chr>        <chr>      <chr>          <int>  <dbl>   <dbl>
## 1 LT           Lithuania    LT00       Lietuva (NUTS…  2010 3.14e6    49.4
## 2 TR           Turkey       TR33       Manisa, Afyon…  2011 3.01e6    66.5
## 3 TR           Turkey       TR81       Zonguldak, Ka…  2011 1.04e6   108. 
## 4 TR           Turkey       TRA1       Erzurum, Erzi…  2013 1.07e6    26.2
## 5 TR           Turkey       TRA2       Agri, Kars, I…  2009 1.14e6    37.9
## # ... with 8 more rows, and 14 more variables: births <dbl>, deaths <dbl>,
## #   natgrowthrate <dbl>, growthrate <dbl>, netmigrate <dbl>, …
```
…
```
## [1]  TRUE FALSE FALSE FALSE
```

```r
# return all rows where life-expectancy is 75 years or less
euro_regio %>% filter(lifeexp <= 75)
```

```
## # A tibble: 274 x 21
##   country_code country_name nuts2_code nuts2_name     year    pop popdens
##   <chr>        <chr>        <chr>      <chr>         <int>  <dbl>   <dbl>
## 1 BG           Bulgaria     BG31       Severozapaden  2005     NA    49.5
## 2 BG           Bulgaria     BG31       Severozapaden  2006 934755    48.5
## 3 BG           Bulgaria     BG31       Severozapaden  2007 916308    47.6
## 4 BG           Bulgaria     BG31       Severozapaden  2008 898371    46.7
## 5 BG           Bulgaria     BG31       Severozapaden  2009 881573    45.8
## # ... with 269 more rows, and 14 more variables: births <dbl>,
## #   deaths <dbl>, natgrowthrate <dbl>, growthrate <dbl>, netmigrate <dbl>,
## #   …
```
…
```
## [1] FALSE FALSE FALSE FALSE
```

```r
# return all rows where unempolyment is higher than 15% and
# netmigration is lower than -15%
euro_regio %>% filter(unemp > 15, netmigrate < -15)
```

```
## # A tibble: 6 x 21
##   country_code country_name nuts2_code nuts2_name      year    pop popdens
##   <chr>        <chr>        <chr>      <chr>          <int>  <dbl>   <dbl>
## 1 CY           Cyprus       CY00       Kypros          2014 8.58e5    92.5
## 2 LT           Lithuania    LT00       Lietuva (NUTS…  2010 3.14e6    49.4
## 3 LV           Latvia       LV00       Latvija         2009 2.16e6    34.4
## 4 LV           Latvia       LV00       Latvija         2010 2.12e6    33.7
## 5 TR           Turkey       TRB2       Van, Mus, Bit…  2010 2.01e6    48.5
## # ... with 1 more row, and 14 more variables: births <dbl>, deaths <dbl>,
## #   natgrowthrate <dbl>, growthrate <dbl>, netmigrate <dbl>, …
```
…
```
## [1] FALSE  TRUE  TRUE  TRUE
```

```r
# return all rows where unempolyment is higher than 15% or
# netmigration is lower than -15%
euro_regio %>% filter(unemp > 15 | netmigrate < -15)
```

```
## # A tibble: 462 x 21
##   country_code country_name nuts2_code nuts2_name     year     pop popdens
##   <chr>        <chr>        <chr>      <chr>         <int>   <dbl>   <dbl>
## 1 AL           Albania      AL01       Veri           2014      NA     NA 
## 2 AL           Albania      AL03       Jug            2014      NA     NA 
## 3 BE           Belgium      BE10       Région de Br…  2006 1018804   6366.
## 4 BE           Belgium      BE10       Région de Br…  2007 1031215   6459.
## 5 BE           Belgium      BE10       Région de Br…  2008 1048491   6575.
## # ... with 457 more rows, and 14 more variables: births <dbl>,
## #   deaths <dbl>, natgrowthrate <dbl>, growthrate <dbl>, netmigrate <dbl>,
## #   …
```
…
