…
library(gapminder)
is.data.frame(gapminder)
```

```
## [1] TRUE
```

```r
head(gapminder)
```

```
## # A tibble: 6 x 6
##   country     continent  year lifeExp      pop gdpPercap
##   <fct>       <fct>     <int>   <dbl>    <int>     <dbl>
## 1 Afghanistan Asia       1952    28.8  8425333      779.
## 2 Afghanistan Asia       1957    30.3  9240934      821.
## 3 Afghanistan Asia       1962    32.0 10267083      853.
## 4 Afghanistan Asia       1967    34.0 11537966      836.
## 5 Afghanistan Asia       1972    36.1 13079460      740.
## # ... with 1 more row
```
…
**Aesthetics specify the _what_, scales specify the _how_**

Which colour to use for which level in the data? Where to put the labels on the axis? Which labels to put? The size of the largest plotting symbol, the name of the legends, log-transformation of the y-axis, the range of the axis... These are all examples of scale specifications -- specifications on *how* to map a data dimension to a visual attribute.

Off to work!


```r
library(gapminder)
head(gapminder)
```

```
## # A tibble: 6 x 6
##   country     continent  year lifeExp      pop gdpPercap
##   <fct>       <fct>     <int>   <dbl>    <int>     <dbl>
## 1 Afghanistan Asia       1952    28.8  8425333      779.
## 2 Afghanistan Asia       1957    30.3  9240934      821.
## 3 Afghanistan Asia       1962    32.0 10267083      853.
## 4 Afghanistan Asia       1967    34.0 11537966      836.
## 5 Afghanistan Asia       1972    36.1 13079460      740.
## # ... with 1 more row
```
…
